{
  "project_info": {
    "project_number": "74436261574",
    "firebase_url": "https://logidemo-192201.firebaseio.com",
    "project_id": "logidemo-192201",
    "storage_bucket": "logidemo-192201.appspot.com"
  },
  "client": [
    {
      "client_info": {
        "mobilesdk_app_id": "1:74436261574:android:487cd3b70fc34181",
        "android_client_info": {
          "package_name": "com.example.tsusumesama.myapplication"
        }
      },
      "oauth_client": [
        {
          "client_id": "74436261574-7iqe4s6il1ju7leigtg5dp51fvhahrp7.apps.googleusercontent.com",
          "client_type": 1,
          "android_info": {
            "package_name": "com.example.tsusumesama.myapplication",
            "certificate_hash": "5b3c27abed9086579850a7b3af524d2b754283e3"
          }
        },
        {
          "client_id": "74436261574-trm4mh9ssc1q75jj66aj0fo4ch9f8mbu.apps.googleusercontent.com",
          "client_type": 1,
          "android_info": {
            "package_name": "com.example.tsusumesama.myapplication",
            "certificate_hash": "1df01eef73d6633bc42b63c242ee6346ff5ab9e3"
          }
        },
        {
          "client_id": "74436261574-k01lqci0o0js669ovgnairq4ifn58u71.apps.googleusercontent.com",
          "client_type": 3
        },
        {
          "client_id": "74436261574-vdo49fagbrvhi9fjp6poijjf9e7cvllh.apps.googleusercontent.com",
          "client_type": 3
        },
        {
          "client_id": "74436261574-sgq4pld5gh5c21vpkm7nk2lu2i37oeuo.apps.googleusercontent.com",
          "client_type": 1,
          "android_info": {
            "package_name": "com.example.tsusumesama.myapplication",
            "certificate_hash": "c77af113d30e3a9e325d57c2590e64069b50e591"
          }
        }
      ],
      "api_key": [
        {
          "current_key": "AIzaSyAlkS6YUU1WwgfVjFlULxhVf1Jrd6ZksdM"
        }
      ],
      "services": {
        "analytics_service": {
          "status": 1
        },
        "appinvite_service": {
          "status": 1,
          "other_platform_oauth_client": []
        },
        "ads_service": {
          "status": 1
        }
      }
    },
    {
      "client_info": {
        "mobilesdk_app_id": "1:74436261574:android:301c29b9786488b4",
        "android_client_info": {
          "package_name": "com.example.sasin.googol"
        }
      },
      "oauth_client": [
        {
          "client_id": "74436261574-srtug2qtn956ejotofohr53f42fqflm1.apps.googleusercontent.com",
          "client_type": 1,
          "android_info": {
            "package_name": "com.example.sasin.googol",
            "certificate_hash": "8cbfb6ac326a8dfda5370a8457ec837e059a78fa"
          }
        },
        {
          "client_id": "74436261574-k01lqci0o0js669ovgnairq4ifn58u71.apps.googleusercontent.com",
          "client_type": 3
        },
        {
          "client_id": "74436261574-vdo49fagbrvhi9fjp6poijjf9e7cvllh.apps.googleusercontent.com",
          "client_type": 3
        }
      ],
      "api_key": [
        {
          "current_key": "AIzaSyAlkS6YUU1WwgfVjFlULxhVf1Jrd6ZksdM"
        }
      ],
      "services": {
        "analytics_service": {
          "status": 1
        },
        "appinvite_service": {
          "status": 2,
          "other_platform_oauth_client": [
            {
              "client_id": "74436261574-k01lqci0o0js669ovgnairq4ifn58u71.apps.googleusercontent.com",
              "client_type": 3
            }
          ]
        },
        "ads_service": {
          "status": 2
        }
      }
    }
  ],
  "configuration_version": "1"
}